{
  "prepare_queue": {
    "installed": [],
    "uninstalled": []
  },
  "config_munge": {
    "files": {}
  },
  "installed_plugins": {
    "cordova-plugin-whitelist": {
      "PACKAGE_NAME": "io.cordova.hellocordova"
    },
    "cordova-plugin-geolocation": {
      "PACKAGE_NAME": "io.cordova.hellocordova"
    },
    "cordova-plugin-vibration": {
      "PACKAGE_NAME": "io.cordova.hellocordova"
    },
    "cordova-plugin-media-capture": {
      "PACKAGE_NAME": "io.cordova.hellocordova"
    }
  },
  "dependent_plugins": {
    "cordova-plugin-file": {
      "PACKAGE_NAME": "io.cordova.hellocordova"
    }
  }
}